Homework 2 Solution
…
                      col_types = cols(SUBJECT_ID = col_integer(),
                                       HOSPITAL_EXPIRE_FLAG = col_logical()))
admission_time <- 
  select(admission, ADMITTIME:DEATHTIME, starts_with("ADMISSION"), 
         HOSPITAL_EXPIRE_FLAG, SUBJECT_ID, INSURANCE:ETHNICITY)
admission_time <- mutate(admission_time,
  year = year(ADMITTIME),
  month = month(ADMITTIME, label = TRUE),
  weekday = wday(ADMITTIME, label = TRUE),
  hour = hour(ADMITTIME),
  days_of_hospital_stay = (unclass(as.POSIXct(DISCHTIME))
                        - unclass(as.POSIXct(ADMITTIME))) / 86400 #86400s/day
) %>% print(width = Inf)

## # A tibble: 58,976 x 17
##    ADMITTIME           DISCHTIME           DEATHTIME           ADMISSION_TYPE
##    <dttm>              <dttm>              <dttm>              <chr>         
##  1 2196-04-09 12:26:00 2196-04-10 15:54:00 NA                  EMERGENCY     
##  2 2153-09-03 07:15:00 2153-09-08 19:10:00 NA                  ELECTIVE      
##  3 2157-10-18 19:34:00 2157-10-25 14:00:00 NA                  EMERGENCY     
##  4 2139-06-06 16:14:00 2139-06-09 12:48:00 NA                  EMERGENCY     
##  5 2160-11-02 02:06:00 2160-11-05 14:55:00 NA                  EMERGENCY     
##  6 2126-05-06 15:16:00 2126-05-13 15:00:00 NA                  EMERGENCY     
##  7 2191-11-30 22:16:00 2191-12-03 14:45:00 NA                  NEWBORN       
##  8 2177-09-01 07:15:00 2177-09-06 16:00:00 NA                  ELECTIVE      
##  9 2172-10-14 14:17:00 2172-10-19 14:37:00 NA                  URGENT        
## 10 2108-08-22 23:27:00 2108-08-30 15:00:00 2108-08-30 15:00:00 EMERGENCY     
##    ADMISSION_LOCATION        HOSPITAL_EXPIRE_FLAG SUBJECT_ID INSURANCE LANGUAGE
##    <chr>                     <lgl>                     <int> <chr>     <chr>   
##  1 EMERGENCY ROOM ADMIT      FALSE                        22 Private   <NA>    
##  2 PHYS REFERRAL/NORMAL DELI FALSE                        23 Medicare  <NA>    
##  3 TRANSFER FROM HOSP/EXTRAM FALSE                        23 Medicare  ENGL    
##  4 TRANSFER FROM HOSP/EXTRAM FALSE                        24 Private   <NA>    
##  5 EMERGENCY ROOM ADMIT      FALSE                        25 Private   <NA>    
##  6 TRANSFER FROM HOSP/EXTRAM FALSE                        26 Medicare  <NA>    
##  7 PHYS REFERRAL/NORMAL DELI FALSE                        27 Private   <NA>    
##  8 PHYS REFERRAL/NORMAL DELI FALSE                        28 Medicare  <NA>    
##  9 TRANSFER FROM HOSP/EXTRAM FALSE                        30 Medicare  <NA>    
## 10 TRANSFER FROM HOSP/EXTRAM TRUE                         31 Medicare  <NA>    
##    RELIGION          MARITAL_STATUS ETHNICITY              year month weekday
##    <chr>             <chr>          <chr>                 <dbl> <ord> <ord>  
##  1 UNOBTAINABLE      MARRIED        WHITE                  2196 Apr   Sat    
##  2 CATHOLIC          MARRIED        WHITE                  2153 Sep   Mon    
##  3 CATHOLIC          MARRIED        WHITE                  2157 Oct   Tue    
##  4 PROTESTANT QUAKER SINGLE         WHITE                  2139 Jun   Sat    
##  5 UNOBTAINABLE      MARRIED        WHITE                  2160 Nov   Sun    
##  6 CATHOLIC          SINGLE         UNKNOWN/NOT SPECIFIED  2126 May   Mon    
##  7 CATHOLIC          <NA>           WHITE                  2191 Nov   Wed    
##  8 CATHOLIC          MARRIED        WHITE                  2177 Sep   Mon    
##  9 CATHOLIC          MARRIED        UNKNOWN/NOT SPECIFIED  2172 Oct   Wed    
## 10 CATHOLIC          MARRIED        WHITE                  2108 Aug   Wed    
##     hour days_of_hospital_stay
##    <int>                 <dbl>
##  1    12                  1.14
##  2     7                  5.50
##  3    19                  6.77
##  4    16                  2.86
##  5     2                  3.53
##  6    15                  6.99
##  7    22                  2.69
##  8     7                  5.36
##  9    14                  5.01
## 10    23                  7.65
## #  with 58,966 more rows

# group and collapse rows for a same patient
# obtain patients' data
patients_uniq <- group_by(admission_time, SUBJECT_ID)
patients_data <- select(patients_uniq, INSURANCE:ETHNICITY, 
                        year:days_of_hospital_stay, DEATHTIME,
                        HOSPITAL_EXPIRE_FLAG, ADMITTIME, SUBJECT_ID)

# calculate number of admissions and check died or not in the end
patients_data <- mutate(patients_data, number_of_admissions = n(), 
                        death = sum(HOSPITAL_EXPIRE_FLAG))
(patients_data <- distinct(patients_data, SUBJECT_ID, .keep_all = TRUE))

## # A tibble: 46,520 x 16
## # Groups:   SUBJECT_ID [46,520]
##    INSURANCE LANGUAGE RELIGION MARITAL_STATUS ETHNICITY  year month weekday
##    <chr>     <chr>    <chr>    <chr>          <chr>     <dbl> <ord> <ord>  
##  1 Private   <NA>     UNOBTAI MARRIED        WHITE      2196 Apr   Sat    
##  2 Medicare  <NA>     CATHOLIC MARRIED        WHITE      2153 Sep   Mon    
##  3 Private   <NA>     PROTEST SINGLE         WHITE      2139 Jun   Sat    
##  4 Private   <NA>     UNOBTAI MARRIED        WHITE      2160 Nov   Sun    
##  5 Medicare  <NA>     CATHOLIC SINGLE         UNKNOWN/  2126 May   Mon    
##  6 Private   <NA>     CATHOLIC <NA>           WHITE      2191 Nov   Wed    
##  7 Medicare  <NA>     CATHOLIC MARRIED        WHITE      2177 Sep   Mon    
##  8 Medicare  <NA>     CATHOLIC MARRIED        UNKNOWN/  2172 Oct   Wed    
##  9 Medicare  <NA>     CATHOLIC MARRIED        WHITE      2108 Aug   Wed    
## 10 Medicaid  <NA>     UNOBTAI <NA>           WHITE      2170 Apr   Wed    
## #  with 46,510 more rows, and 8 more variables: hour <int>,
## #   days_of_hospital_stay <dbl>, DEATHTIME <dttm>, HOSPITAL_EXPIRE_FLAG <lgl>,
## #   ADMITTIME <dttm>, SUBJECT_ID <int>, number_of_admissions <int>, death <int>

# obtain data of died patients
(death_data <- filter(patients_data, death == TRUE))

## # A tibble: 5,772 x 16
## # Groups:   SUBJECT_ID [5,772]
##    INSURANCE LANGUAGE RELIGION MARITAL_STATUS ETHNICITY  year month weekday
##    <chr>     <chr>    <chr>    <chr>          <chr>     <dbl> <ord> <ord>  
##  1 Medicare  <NA>     CATHOLIC MARRIED        WHITE      2108 Aug   Wed    
##  2 Medicare  <NA>     NOT SPE <NA>           WHITE      2104 Jan   Wed    
##  3 Private   <NA>     CATHOLIC MARRIED        WHITE      2118 Jun   Fri    
##  4 Medicare  <NA>     JEWISH   SINGLE         WHITE      2155 Feb   Tue    
##  5 Private   <NA>     OTHER    MARRIED        WHITE      2196 Feb   Tue    
##  6 Medicare  <NA>     JEWISH   MARRIED        WHITE      2177 Apr   Wed    
##  7 Medicare  <NA>     <NA>     MARRIED        ASIAN      2196 Sep   Mon    
##  8 Private   <NA>     CATHOLIC MARRIED        UNKNOWN/  2144 Aug   Wed    
##  9 Medicaid  <NA>     UNOBTAI <NA>           UNKNOWN/  2192 Aug   Thu    
## 10 Governme ENGL     NOT SPE SINGLE         BLACK/AF  2137 Nov   Mon    
## #  with 5,762 more rows, and 8 more variables: hour <int>,
## #   days_of_hospital_stay <dbl>, DEATHTIME <dttm>, HOSPITAL_EXPIRE_FLAG <lgl>,
## #   ADMITTIME <dttm>, SUBJECT_ID <int>, number_of_admissions <int>, death <int>
…
# select related variables
compile_data <- select(compile_data,
                       SUBJECT_ID, INSURANCE:ETHNICITY, #demographic information
                       ICUSTAY_ID, starts_with("FIRST"), INTIME, #first icu stay
                       ITEMID:CHARTTIME, #first SBP
                       thirty_days_flag #whether the patient died within 30 days
                       ) %>% print(width = Inf)

## # A tibble: 46,476 x 14
##    SUBJECT_ID INSURANCE LANGUAGE RELIGION          MARITAL_STATUS
##         <dbl> <chr>     <chr>    <chr>             <chr>         
##  1      82574 Medicaid  ENGL     CATHOLIC          SINGLE        
##  2      29156 Private   CANT     UNOBTAINABLE      MARRIED       
##  3      12001 Medicare  <NA>     CATHOLIC          MARRIED       
##  4      21081 Medicaid  <NA>     NOT SPECIFIED     SINGLE        
##  5      32096 Private   ENGL     NOT SPECIFIED     MARRIED       
##  6      20957 Private   <NA>     PROTESTANT QUAKER MARRIED       
##  7       9319 Medicare  ENGL     PROTESTANT QUAKER WIDOWED       
##  8      31585 Private   ENGL     CATHOLIC          WIDOWED       
##  9      28711 Private   <NA>     CATHOLIC          <NA>          
## 10       1291 Private   <NA>     UNOBTAINABLE      <NA>          
##    ETHNICITY              ICUSTAY_ID FIRST_CAREUNIT FIRST_WARDID
##    <chr>                       <dbl> <chr>                 <dbl>
##  1 OTHER                      202134 MICU                     23
##  2 WHITE                      293407 MICU                     52
##  3 WHITE                      222148 SICU                     23
##  4 BLACK/AFRICAN AMERICAN     293525 MICU                     15
##  5 WHITE                      240498 TSICU                    14
##  6 WHITE                      246035 CSRU                     23
##  7 WHITE                      200237 MICU                     52
##  8 WHITE                      234741 MICU                     50
##  9 ASIAN - OTHER              243083 NICU                     56
## 10 UNKNOWN/NOT SPECIFIED      299677 NICU                     56
##    INTIME              ITEMID VALUE CHARTTIME thirty_days_flag
##    <dttm>               <dbl> <dbl> <chr>     <lgl>           
##  1 2100-06-07 20:00:22     NA    NA <NA>      FALSE           
##  2 2100-06-09 01:39:43     NA    NA <NA>      TRUE            
##  3 2100-06-14 04:56:39     NA    NA <NA>      FALSE           
##  4 2100-06-14 14:33:55     NA    NA <NA>      FALSE           
##  5 2100-06-22 06:34:52     NA    NA <NA>      FALSE           
##  6 2100-06-26 18:43:00     NA    NA <NA>      FALSE           
##  7 2100-07-02 01:12:19     NA    NA <NA>      FALSE           
##  8 2100-07-02 22:27:28     NA    NA <NA>      FALSE           
##  9 2100-07-02 22:28:32     NA    NA <NA>      FALSE           
## 10 2100-07-04 10:29:48     NA    NA <NA>      FALSE           
## #  with 46,466 more rows

# if only patients with SBP measurement are needed
compile_data <- filter(compile_data, !is.na(ITEMID)) %>% print(width = Inf)

## # A tibble: 438 x 14
##    SUBJECT_ID INSURANCE LANGUAGE RELIGION          MARITAL_STATUS
##         <dbl> <chr>     <chr>    <chr>             <chr>         
##  1       7585 Medicare  ENGL     PROTESTANT QUAKER MARRIED       
##  2       6692 Private   ENGL     CATHOLIC          MARRIED       
##  3       2298 Medicaid  ENGL     PROTESTANT QUAKER DIVORCED      
##  4       1985 Medicare  <NA>     PROTESTANT QUAKER WIDOWED       
##  5        291 Medicare  ENGL     CATHOLIC          SINGLE        
##  6       5078 Medicare  <NA>     CATHOLIC          SINGLE        
##  7       2830 Private   ENGL     CATHOLIC          WIDOWED       
##  8       1106 Private   ENGL     JEWISH            SINGLE        
##  9       2413 Medicare  <NA>     PROTESTANT QUAKER WIDOWED       
## 10       8917 Medicare  <NA>     CATHOLIC          MARRIED       
##    ETHNICITY              ICUSTAY_ID FIRST_CAREUNIT FIRST_WARDID
##    <chr>                       <dbl> <chr>                 <dbl>
##  1 BLACK/AFRICAN AMERICAN     213606 SICU                     33
##  2 WHITE                      214392 CCU                       7
##  3 BLACK/AFRICAN AMERICAN     200513 TSICU                    23
##  4 WHITE                      229821 CSRU                     14
##  5 WHITE                      256641 CCU                       7
##  6 WHITE                      274186 CSRU                     12
##  7 WHITE                      207384 SICU                     57
##  8 WHITE                      257174 MICU                     52
##  9 BLACK/AFRICAN AMERICAN     297258 CCU                      57
## 10 WHITE                      264694 CSRU                     14
##    INTIME              ITEMID VALUE CHARTTIME     thirty_days_flag
##    <dttm>               <dbl> <dbl> <chr>         <lgl>           
##  1 2100-11-07 21:00:23 220179   122 12/19/05 1:12 FALSE           
##  2 2100-11-10 02:12:20 220179   105 8/11/04 23:57 FALSE           
##  3 2101-02-01 15:12:04 220179   114 1/14/05 20:34 FALSE           
##  4 2101-05-11 08:27:49 220179   109 2/20/08 22:30 FALSE           
##  5 2102-04-08 23:05:28 220179   141 4/17/06 13:16 FALSE           
##  6 2102-06-09 16:41:12 220179   124 2/4/08 19:58  FALSE           
##  7 2103-04-26 02:43:34 220050   133 8/10/06 0:00  FALSE           
##  8 2103-09-30 14:41:06 220179    90 10/1/03 0:01  FALSE           
##  9 2103-10-02 17:08:43 220179   141 9/10/09 0:51  FALSE           
## 10 2103-10-18 06:20:45 220179   128 5/20/10 18:55 FALSE           
## #  with 428 more rows
